…
# Checamos la base 
pop

## # A tibble: 34 x 5
##    `Entidad federa… `Grupos quinque… `Población tota… Sexo 
##    <chr>            <chr>                       <dbl> <chr>
##  1 17 Morelos       00-04 años                 157558 Homb…
##  2 17 Morelos       00-04 años                 157558 Muje…
##  3 17 Morelos       05-09 años                 164416 Homb…
##  4 17 Morelos       05-09 años                 164416 Muje…
##  5 17 Morelos       10-14 años                 169614 Homb…
##  6 17 Morelos       10-14 años                 169614 Muje…
##  7 17 Morelos       15-19 años                 169269 Homb…
##  8 17 Morelos       15-19 años                 169269 Muje…
##  9 17 Morelos       20-24 años                 174065 Homb…
## 10 17 Morelos       20-24 años                 174065 Muje…
## # … with 24 more rows, and 1 more variable: `Poblacion por Sexo` <dbl>
…
